module gitlab.com/alisherkuttybai/audit-protos

go 1.21

require (
	google.golang.org/grpc v1.63.2
	google.golang.org/protobuf v1.34.0
)

require (
	golang.org/x/net v0.21.0 // indirect
	golang.org/x/sys v0.17.0 // indirect
	golang.org/x/text v0.14.0 // indirect
	google.golang.org/genproto/googleapis/rpc v0.0.0-20240227224415-6ceb2ff114de // indirect
)
